{"page":1,"total_results":45,"total_pages":3,"results":[{"popularity":243.687,"vote_count":872,"video":false,"poster_path":"\/jHo2M1OiH9Re33jYtUQdfzPeUkx.jpg","id":385103,"adult":false,"backdrop_path":"\/fKtYXUhX5fxMxzQfyUcQW9Shik6.jpg","original_language":"en","original_title":"Scoob!","genre_ids":[10751,16,35,12],"title":"Scoob!","vote_average":7.4,"overview":"In Scooby-Doo’s greatest adventure yet, see the never-before told story of how lifelong friends Scooby and Shaggy first met and how they joined forces with young detectives Fred, Velma, and Daphne to form the famous Mystery Inc. Now, with hundreds of cases solved, Scooby and the gang face their biggest, toughest mystery ever: an evil plot to unleash the ghost dog Cerberus upon the world. As they race to stop this global “dogpocalypse,” the gang discovers that Scooby has a secret legacy and an epic destiny greater than anyone ever imagined.","release_date":"2020-07-08"},{"popularity":82.075,"vote_count":5267,"video":false,"poster_path":"\/38C91I7Xft0gyY7BITm8i4yvuRb.jpg","id":214756,"adult":false,"backdrop_path":"\/yloR8F4DUYJJiCoouecp1qfAUFK.jpg","original_language":"en","original_title":"Ted 2","genre_ids":[35],"title":"Ted 2","vote_average":6.2,"overview":"Newlywed couple Ted and Tami-Lynn want to have a baby, but in order to qualify to be a parent, Ted will have to prove he's a person in a court of law.","release_date":"2015-06-25"},{"popularity":44.869,"id":49530,"video":false,"vote_count":8058,"vote_average":6.9,"title":"In Time","release_date":"2011-10-27","original_language":"en","original_title":"In Time","genre_ids":[28,53,878],"backdrop_path":"\/agd70oz1KUhUTjU9v7ILGGzxf3f.jpg","adult":false,"overview":"In the not-too-distant future the aging gene has been switched off. To avoid overpopulation, time has become the currency and the way people pay for luxuries and necessities. The rich can live forever, while the rest try to negotiate for their immortality. A poor young man who comes into a fortune of time, though too late to help his mother from dying. He ends up on the run from a corrupt police force known as 'time keepers'.","poster_path":"\/3Mwj2sIONQckOZP3YwsUXF7U5I4.jpg"},{"popularity":31.206,"vote_count":2326,"video":false,"poster_path":"\/48G2U0zmBh8mQ7gv8scC9xYIZSk.jpg","id":19994,"adult":false,"backdrop_path":"\/aTmh5w201d86lt3juFk8tbK297Y.jpg","original_language":"en","original_title":"Jennifer's Body","genre_ids":[35,27],"title":"Jennifer's Body","vote_average":5.6,"overview":"Jennifer, a gorgeous, seductive cheerleader who takes evil to a whole new level after she's possessed by a sinister demon. Now it's up to her best friend to stop Jennifer's reign of terror before it's too late.","release_date":"2009-09-18"},{"popularity":28.837,"id":396806,"video":false,"vote_count":998,"vote_average":5.9,"title":"Anon","release_date":"2018-05-03","original_language":"en","original_title":"Anon","genre_ids":[878],"backdrop_path":"\/uugcOIfnh8Gz0nxUbduWCoxjWct.jpg","adult":false,"overview":"Set in a near-future world where there is no privacy, ignorance or anonymity, our private memories are recorded and crime almost ceases to exist. In trying to solve a series of unsolved murders, Sal Frieland stumbles onto a young woman who appears to have subverted the system and disappeared. She has no identity, no history and no record. Sal realizes it may not be the end of crime but the beginning. Known only as 'The Girl', Sal must find her before he becomes the next victim.","poster_path":"\/xhBTO9n3fxy3HJt7WlR9h9vvVmk.jpg"},{"popularity":25.912,"id":514593,"video":false,"vote_count":214,"vote_average":5.9,"title":"You Should Have Left","release_date":"2020-06-19","original_language":"en","original_title":"You Should Have Left","genre_ids":[27,9648,18,53],"backdrop_path":"\/chAGSv4DB9s3fsgULpSZQLN7LgN.jpg","adult":false,"overview":"In an effort to repair their relationship, a couple books a vacation in the countryside for themselves and their daughter. What starts as a perfect retreat begins to fall apart as one loses their grip on reality, and a sinister force tries to tear them apart.","poster_path":"\/tpOwE6xsWnu4lKeKbKW0R3iClM.jpg"},{"popularity":30.598,"vote_count":6193,"video":false,"poster_path":"\/fXm3YKXAEjx7d2tIWDg9TfRZtsU.jpg","id":10625,"adult":false,"backdrop_path":"\/3PiKtDl1s0tGHmqRjnWZbBVgEEr.jpg","original_language":"en","original_title":"Mean Girls","genre_ids":[35],"title":"Mean Girls","vote_average":7.1,"overview":"Cady Heron is a hit with The Plastics, the A-list girl clique at her new school, until she makes the mistake of falling for Aaron Samuels, the ex-boyfriend of alpha Plastic Regina George.","release_date":"2004-04-30"},{"popularity":33.701,"id":522924,"video":false,"vote_count":671,"vote_average":8.4,"title":"The Art of Racing in the Rain","release_date":"2019-08-08","original_language":"en","original_title":"The Art of Racing in the Rain","genre_ids":[35,18,10749],"backdrop_path":"\/6esNUoXh4xQvucB7o7e3TCfjI65.jpg","adult":false,"overview":"A family dog—with a near-human soul and a philosopher's mind—evaluates his life through the lessons learned by his human owner, a race-car driver.","poster_path":"\/mi5VN4ww0JZgRFJIaPxxTGKjUg7.jpg"},{"popularity":24.021,"vote_count":470,"video":false,"poster_path":"\/v1UoHdiX1yXc8iT3S5emAFWKj3n.jpg","id":77805,"adult":false,"backdrop_path":"\/Qb2KI1VfnJOxPmu7l6RREVQajL.jpg","original_language":"en","original_title":"Lovelace","genre_ids":[18],"title":"Lovelace","vote_average":6.1,"overview":"Story of Linda Lovelace, who is used and abused by the porn industry at the behest of her coercive husband, before taking control of her life.","release_date":"2013-08-08"},{"popularity":17.915,"vote_count":2445,"video":false,"poster_path":"\/vzI4gNJDUwWgmNDSBWxYoeGkIEY.jpg","id":458423,"adult":false,"backdrop_path":"\/8HKwxHZ23sW8wz4yb28IWnAM1M6.jpg","original_language":"en","original_title":"Mamma Mia! Here We Go Again","genre_ids":[35,10749],"title":"Mamma Mia! Here We Go Again","vote_average":7.2,"overview":"Five years after meeting her three fathers, Sophie Sheridan prepares to open her mother’s hotel. In 1979, young Donna Sheridan meets the men who each could be Sophie’s biological father.","release_date":"2018-07-09"},{"popularity":26.868,"vote_count":2433,"video":false,"poster_path":"\/ixQYkLeLlTTnAoT32dukndyObB6.jpg","id":49730,"adult":false,"backdrop_path":"\/sEWVfOz8qolTWqGEBljKsufhCdd.jpg","original_language":"en","original_title":"Red Riding Hood","genre_ids":[14,53,27],"title":"Red Riding Hood","vote_average":6,"overview":"Valerie is in love with a brooding outsider, Peter, but her parents have arranged for her to marry another man – who is wealthy. Unwilling to lose each other, Valerie and Peter plan to run away together when they learn that Valerie's older sister has been killed by a werewolf that prowls the dark forest surrounding their village. Hungry for revenge, the people call on famed werewolf hunter, Father Solomon, to help them kill the wolf. But Solomon's arrival brings unintended consequences as he warns that the wolf, who takes human form by day, could be any one of them.","release_date":"2011-03-11"},{"popularity":23.312,"vote_count":2008,"video":false,"poster_path":"\/rdi6MYgAhLlgomEERtmYtrH8ItY.jpg","id":116711,"adult":false,"backdrop_path":"\/l5U58gHBeC1VDQuaTwGIi3lix6s.jpg","original_language":"en","original_title":"Epic","genre_ids":[16,12,10751,14],"title":"Epic","vote_average":6.5,"overview":"A teenager finds herself transported to a deep forest setting where a battle between the forces of good and the forces of evil is taking place. She bands together with a rag-tag group characters in order to save their world—and ours.","release_date":"2013-05-15"},{"popularity":28.488,"vote_count":2876,"video":false,"poster_path":"\/n9SicwnoNGWBwE75le27sUhCLMm.jpg","id":188161,"adult":false,"backdrop_path":"\/zJRVO9G5c7tTfDRvfC13nUDqXdH.jpg","original_language":"en","original_title":"A Million Ways to Die in the West","genre_ids":[35,37],"title":"A Million Ways to Die in the West","vote_average":5.9,"overview":"As a cowardly farmer begins to fall for the mysterious new woman in town, he must put his new-found courage to the test when her husband, a notorious gun-slinger, announces his arrival.","release_date":"2014-05-22"},{"popularity":22.857,"vote_count":3,"video":false,"poster_path":"\/hsMrWKY4ltL6tNrMapjp6z2KBPl.jpg","id":614560,"adult":false,"backdrop_path":"\/A3hyHeJGxoxOyZo8LyEve8Uk2V9.jpg","original_language":"en","original_title":"Mank","genre_ids":[18,36],"title":"Mank","vote_average":9,"overview":"1930s Hollywood is reevaluated through the eyes of scathing social critic and alcoholic screenwriter Herman J. Mankiewicz as he races to finish the screenplay of Citizen Kane.","release_date":"2020-11-06"},{"popularity":18.898,"id":266647,"video":false,"vote_count":2128,"vote_average":6,"title":"Pan","release_date":"2015-09-24","original_language":"en","original_title":"Pan","genre_ids":[12,10751,14],"backdrop_path":"\/irgXyLx6IZUzlcYeNvExdpIqDDJ.jpg","adult":false,"overview":"Living a bleak existence at a London orphanage, 12-year-old Peter finds himself whisked away to the fantastical world of Neverland. Adventure awaits as he meets new friend James Hook and the warrior Tiger Lily. They must band together to save Neverland from the ruthless pirate Blackbeard. Along the way, the rebellious and mischievous boy discovers his true destiny, becoming the hero forever known as Peter Pan.","poster_path":"\/daOGYJBfZTUo0acHASqZw3Jtdio.jpg"},{"popularity":21.177,"id":458737,"video":false,"vote_count":800,"vote_average":7,"title":"First Reformed","release_date":"2018-05-18","original_language":"en","original_title":"First Reformed","genre_ids":[18],"backdrop_path":"\/oXNtdwoRsG9MIpOjJHeT4xGjwbV.jpg","adult":false,"overview":"A pastor of a small church in upstate New York starts to spiral out of control after a soul-shaking encounter with an unstable environmental activist and his pregnant wife.","poster_path":"\/p2UylV0hPefEuWPFMo1r56vu2nb.jpg"},{"popularity":17.431,"id":333348,"video":false,"vote_count":512,"vote_average":6,"title":"Love the Coopers","release_date":"2015-11-12","original_language":"en","original_title":"Love the Coopers","genre_ids":[35,10751,18],"backdrop_path":"\/AgtqNrhuRr7YjNqwmglnyVfvxil.jpg","adult":false,"overview":"When four generations of the Cooper clan come together for their annual Christmas Eve celebration, a series of unexpected visitors and unlikely events turn the night upside down, leading them all toward a surprising rediscovery of family bonds and the spirit of the holiday.","poster_path":"\/4QH6jAvp7cUBmJ0qAYikV3Au7hN.jpg"},{"popularity":19.353,"id":22971,"video":false,"vote_count":3257,"vote_average":6.8,"title":"Dear John","release_date":"2010-02-04","original_language":"en","original_title":"Dear John","genre_ids":[18,10749,10752],"backdrop_path":"\/9lpGLWrRxpDlqvO5DVjYkJN1Gzz.jpg","adult":false,"overview":"While Sergeant John Tyree is home on two weeks leave from Germany, he meets Savannah after he dives into the ocean to retrieve Savannah's purse that had fallen off a pier. John eventually falls in love with Savannah, who promises to write to him until he returns from overseas.","poster_path":"\/guSvICQojnbrWKQCACI451ZS342.jpg"},{"popularity":15.668,"id":37056,"video":false,"vote_count":2183,"vote_average":6.9,"title":"Letters to Juliet","release_date":"2010-05-13","original_language":"en","original_title":"Letters to Juliet","genre_ids":[35,18,10749],"backdrop_path":"\/kqNN0lvOJPmafDtgQE3awoxxPg3.jpg","adult":false,"overview":"An American girl on vacation in Italy finds an unanswered \"letter to Juliet\" -- one of thousands of missives left at the fictional lover's Verona courtyard, which are typically answered by a the \"secretaries of Juliet\" -- and she goes on a quest to find the lovers referenced in the letter.","poster_path":"\/ibOtxVcXFiHuj6gDlBZZfetsZUm.jpg"},{"popularity":20.414,"id":11631,"video":false,"vote_count":4746,"vote_average":6.9,"title":"Mamma Mia!","release_date":"2008-07-02","original_language":"en","original_title":"Mamma Mia!","genre_ids":[35,10749],"backdrop_path":"\/ns9T8glyF7mYwxrcUHXm22nMf9t.jpg","adult":false,"overview":"An independent, single mother who owns a small hotel on a Greek island is about to marry off the spirited young daughter she's raised alone. But, the daughter has secretly invited three of her mother's ex-lovers in the hopes of finding her biological father.","poster_path":"\/zdUA4FNHbXPadzVOJiU0Rgn6cHR.jpg"}]}