{"page":1,"total_results":52,"total_pages":3,"results":[{"popularity":185.308,"vote_count":438,"video":false,"poster_path":"\/hPkqY2EMqWUnFEoedukilIUieVG.jpg","id":531876,"adult":false,"backdrop_path":"\/n1RohH2VoK1CdVI2fXvcP19dSlm.jpg","original_language":"en","original_title":"The Outpost","genre_ids":[10752,18,36,28],"title":"The Outpost","vote_average":6.8,"overview":"A small unit of U.S. soldiers, alone at the remote Combat Outpost Keating, located deep in the valley of three mountains in Afghanistan, battles to defend against an overwhelming force of Taliban fighters in a coordinated attack. The Battle of Kamdesh, as it was known, was the bloodiest American engagement of the Afghan War in 2009 and Bravo Troop 3-61 CAV became one of the most decorated units of the 19-year conflict.","release_date":"2020-06-24"},{"popularity":81.433,"id":122917,"video":false,"vote_count":10396,"vote_average":7.3,"title":"The Hobbit: The Battle of the Five Armies","release_date":"2014-12-10","original_language":"en","original_title":"The Hobbit: The Battle of the Five Armies","genre_ids":[28,12,14],"backdrop_path":"\/bVmSXNgH1gpHYTDyF9Q826YwJT5.jpg","adult":false,"overview":"Immediately after the events of The Desolation of Smaug, Bilbo and the dwarves try to defend Erebor's mountain of treasure from others who claim it: the men of the ruined Laketown and the elves of Mirkwood. Meanwhile an army of Orcs led by Azog the Defiler is marching on Erebor, fueled by the rise of the dark lord Sauron. Dwarves, elves and men must unite, and the hope for Middle-Earth falls into Bilbo's hands.","poster_path":"\/xT98tLqatZPQApyRmlPL12LtiWp.jpg"},{"popularity":56.464,"vote_count":10357,"video":false,"poster_path":"\/oVh3REsCwJwmrTkZ9OkkeKiAE02.jpg","id":285,"adult":false,"backdrop_path":"\/kobscH4qOsYQNTZnkrF5zkPCsvX.jpg","original_language":"en","original_title":"Pirates of the Caribbean: At World's End","genre_ids":[12,14,28],"title":"Pirates of the Caribbean: At World's End","vote_average":7.2,"overview":"Captain Barbossa, long believed to be dead, has come back to life and is headed to the edge of the Earth with Will Turner and Elizabeth Swann. But nothing is quite as it seems.","release_date":"2007-05-19"},{"popularity":58.846,"id":58,"video":false,"vote_count":11591,"vote_average":7.3,"title":"Pirates of the Caribbean: Dead Man's Chest","release_date":"2006-07-06","original_language":"en","original_title":"Pirates of the Caribbean: Dead Man's Chest","genre_ids":[12,14,28],"backdrop_path":"\/8zfRLCgKrLAc5SSnACz8ZqmeKAP.jpg","adult":false,"overview":"Captain Jack Sparrow works his way out of a blood debt with the ghostly Davey Jones to avoid eternal damnation.","poster_path":"\/lAhcKRt0ggTFkeFL95jrGQYaRXs.jpg"},{"popularity":65.117,"vote_count":18024,"video":false,"poster_path":"\/6oom5QYQ2yQTMJIbnvbkBL9cHo6.jpg","id":120,"adult":false,"backdrop_path":"\/vRQnzOn4HjIMX4LBq9nHhFXbsSu.jpg","original_language":"en","original_title":"The Lord of the Rings: The Fellowship of the Ring","genre_ids":[12,14,28],"title":"The Lord of the Rings: The Fellowship of the Ring","vote_average":8.3,"overview":"Young hobbit Frodo Baggins, after inheriting a mysterious ring from his uncle Bilbo, must leave his home in order to keep it from falling into the hands of its evil creator. Along the way, a fellowship is formed to protect the ringbearer and make sure that the ring arrives at its final destination: Mt. Doom, the only place where it can be destroyed.","release_date":"2001-12-18"},{"popularity":60.534,"id":22,"video":false,"vote_count":15206,"vote_average":7.7,"title":"Pirates of the Caribbean: The Curse of the Black Pearl","release_date":"2003-07-09","original_language":"en","original_title":"Pirates of the Caribbean: The Curse of the Black Pearl","genre_ids":[12,14,28],"backdrop_path":"\/7yxjg8pvp3JuqguUaJPYTma6Z7t.jpg","adult":false,"overview":"Jack Sparrow, a freewheeling 18th-century pirate, quarrels with a rival pirate bent on pillaging Port Royal. When the governor's daughter is kidnapped, Sparrow decides to help the girl's love save her.","poster_path":"\/z8onk7LV9Mmw6zKz4hT6pzzvmvl.jpg"},{"popularity":49.331,"id":166426,"video":false,"vote_count":8742,"vote_average":6.6,"title":"Pirates of the Caribbean: Dead Men Tell No Tales","release_date":"2017-05-23","original_language":"en","original_title":"Pirates of the Caribbean: Dead Men Tell No Tales","genre_ids":[12,28,14,35],"backdrop_path":"\/7C921eWK06n12c1miRXnYoEu5Yv.jpg","adult":false,"overview":"Thrust into an all-new adventure, a down-on-his-luck Capt. Jack Sparrow feels the winds of ill-fortune blowing even more strongly when deadly ghost sailors led by his old nemesis, the evil Capt. Salazar, escape from the Devil's Triangle. Jack's only hope of survival lies in seeking out the legendary Trident of Poseidon, but to find it, he must forge an uneasy alliance with a brilliant and beautiful astronomer and a headstrong young man in the British navy.","poster_path":"\/xbpSDU3p7YUGlu9Mr6Egg2Vweto.jpg"},{"popularity":57.335,"vote_count":16572,"video":false,"poster_path":"\/rCzpDGLbOoPwLjy3OAm5NUPOTrC.jpg","id":122,"adult":false,"backdrop_path":"\/9DeGfFIqjph5CBFVQrD6wv9S7rR.jpg","original_language":"en","original_title":"The Lord of the Rings: The Return of the King","genre_ids":[12,14,28],"title":"The Lord of the Rings: The Return of the King","vote_average":8.5,"overview":"Aragorn is revealed as the heir to the ancient kings as he, Gandalf and the other members of the broken fellowship struggle to save Gondor from Sauron's forces. Meanwhile, Frodo and Sam take the ring closer to the heart of Mordor, the dark lord's realm.","release_date":"2003-12-01"},{"popularity":51.244,"vote_count":15565,"video":false,"poster_path":"\/5VTN0pR8gcqV3EPUHHfMGnJYN9L.jpg","id":121,"adult":false,"backdrop_path":"\/9BUvLUz1GhbNpcyQRyZm1HNqMq4.jpg","original_language":"en","original_title":"The Lord of the Rings: The Two Towers","genre_ids":[12,14,28],"title":"The Lord of the Rings: The Two Towers","vote_average":8.3,"overview":"Frodo and Sam are trekking to Mordor to destroy the One Ring of Power while Gimli, Legolas and Aragorn search for the orc-captured Merry and Pippin. All along, nefarious wizard Saruman awaits the Fellowship members at the Orthanc Tower in Isengard.","release_date":"2002-12-18"},{"popularity":42.3,"id":652,"video":false,"vote_count":7153,"vote_average":7.1,"title":"Troy","release_date":"2004-05-03","original_language":"en","original_title":"Troy","genre_ids":[12,36],"backdrop_path":"\/wEmexPKgF2sgYvvl6MxI5rTn2qM.jpg","adult":false,"overview":"In year 1250 B.C. during the late Bronze age, two emerging nations begin to clash. Paris, the Trojan prince, convinces Helen, Queen of Sparta, to leave her husband Menelaus, and sail with him back to Troy. After Menelaus finds out that his wife was taken by the Trojans, he asks his brother Agamemnom to help him get her back. Agamemnon sees this as an opportunity for power. So they set off with 1,000 ships holding 50,000 Greeks to Troy. With the help of Achilles, the Greeks are able to fight the never before defeated Trojans.","poster_path":"\/kWj4RJzZeJGeyGA3DVGQiNkUjkt.jpg"},{"popularity":44.986,"id":57158,"video":false,"vote_count":9444,"vote_average":7.6,"title":"The Hobbit: The Desolation of Smaug","release_date":"2013-12-11","original_language":"en","original_title":"The Hobbit: The Desolation of Smaug","genre_ids":[12,14,28],"backdrop_path":"\/npCPnwDyWfQltGfIZKN6WqeUXGI.jpg","adult":false,"overview":"The Dwarves, Bilbo and Gandalf have successfully escaped the Misty Mountains, and Bilbo has gained the One Ring. They all continue their journey to get their gold back from the Dragon, Smaug.","poster_path":"\/xQYiXsheRCDBA39DOrmaw1aSpbk.jpg"},{"popularity":32.737,"id":855,"video":false,"vote_count":3805,"vote_average":7.3,"title":"Black Hawk Down","release_date":"2001-12-28","original_language":"en","original_title":"Black Hawk Down","genre_ids":[28,36,10752],"backdrop_path":"\/mReQOInw7jOOstY6Y9HLUvlXMXD.jpg","adult":false,"overview":"When U.S. Rangers and an elite Delta Force team attempt to kidnap two underlings of a Somali warlord, their Black Hawk helicopters are shot down, and the Americans suffer heavy casualties, facing intense fighting from the militia on the ground.","poster_path":"\/7fU5dSqKRL4XHeEUz62rCKBfYok.jpg"},{"popularity":32.646,"vote_count":117,"video":false,"poster_path":"\/fJSdqHzpMeCkXMrILYt1SdGN2sL.jpg","id":65650,"adult":false,"backdrop_path":"\/pRMZilt1YIsu6aNnlpf0lo5Brm4.jpg","original_language":"en","original_title":"The Good Doctor","genre_ids":[18,9648,53],"title":"The Good Doctor","vote_average":5.7,"overview":"Dr. Martin Blake, who has spent his life looking for respect, meets an 18-year-old patient named Diane, suffering from a kidney infection, and gets a much-needed boost of self-esteem. However, when her health starts improving, Martin fears losing her, so he begins tampering with her treatment, keeping Diane sick and in the hospital right next to him.","release_date":"2011-04-23"},{"popularity":20.054,"vote_count":1942,"video":false,"poster_path":"\/w2LbQ8FvZiQpWvZyHljaOeiNknK.jpg","id":52451,"adult":false,"backdrop_path":"\/wCkGiBE4swpWwJ0C8zJLr0WNH04.jpg","original_language":"en","original_title":"The Three Musketeers","genre_ids":[12,28,53],"title":"The Three Musketeers","vote_average":5.8,"overview":"The hot-headed young D'Artagnan along with three former legendary but now down on their luck Musketeers must unite and defeat a beautiful double agent and her villainous employer from seizing the French throne and engulfing Europe in war.","release_date":"2011-08-31"},{"popularity":22.329,"vote_count":2743,"video":false,"poster_path":"\/rQC8p18obWaLVpn7Cp5xVqOjDVX.jpg","id":1495,"adult":false,"backdrop_path":"\/kP8rK9dGS1pr0HrnmXfIi2heWjo.jpg","original_language":"en","original_title":"Kingdom of Heaven","genre_ids":[18,28,12,36,10752],"title":"Kingdom of Heaven","vote_average":6.8,"overview":"After his wife dies, a blacksmith named Balian is thrust into royalty, political intrigue and bloody holy wars during the Crusades.","release_date":"2005-05-03"},{"popularity":15.424,"id":291276,"video":false,"vote_count":699,"vote_average":6.2,"title":"Unlocked","release_date":"2017-04-27","original_language":"en","original_title":"Unlocked","genre_ids":[28,53],"backdrop_path":"\/76rh9uQWW0LmdCGe8kMwDbSbLB9.jpg","adult":false,"overview":"After failing to apprehend the terrorist behind a Paris attack that claimed dozens of lives, CIA agent Alice Racine is forced to live in London as a caseworker. Her mentor unexpectedly calls her back into action when the CIA discovers that another attack is imminent. Alice soon learns that the classified information she's uncovered has been compromised. Running for her life, she turns to a former soldier to help her prevent a lethal biological attack on the citizens of London.","poster_path":"\/fBDLdEraxCBKGmOPb6pJPYiDQh1.jpg"},{"popularity":10.843,"vote_count":346,"video":false,"poster_path":"\/541jVBSKFjVX7iSWsKJlMVhvLPq.jpg","id":12572,"adult":false,"backdrop_path":"\/wYJ18LwyprtzSW3HBnqi7Mk26NJ.jpg","original_language":"en","original_title":"New York, I Love You","genre_ids":[35,18,10749],"title":"New York, I Love You","vote_average":5.9,"overview":"New York, I Love You delves into the intimate lives of New Yorkers as they grapple with, delight in and search for love. Journey from the Diamond District in the heart of Manhattan, through Chinatown and the Upper East Side, towards the Village, into Tribeca, and Brooklyn as lovers of all ages try to find romance in the Big Apple.","release_date":"2008-09-06"},{"popularity":9.52,"vote_count":782,"video":false,"poster_path":"\/mOdlzAQxhMgiaazRzif1YtJzg9s.jpg","id":9621,"adult":false,"backdrop_path":"\/cx2nwab4wKPpmQ9uacgBU7jJfEp.jpg","original_language":"en","original_title":"Elizabethtown","genre_ids":[35,18,10749],"title":"Elizabethtown","vote_average":6.1,"overview":"Drew Baylor is fired after causing his shoe company to lose hundreds of millions of dollars. To make matters worse, he's also dumped by his girlfriend. On the verge of ending it all, Drew gets a new lease on life when he returns to his family's small Kentucky hometown after his father dies. Along the way, he meets a flight attendant with whom he falls in love.","release_date":"2005-10-06"},{"popularity":10.191,"vote_count":67,"video":false,"poster_path":"\/rw5qHjaMTwER15MfwUG13WXQ0Cy.jpg","id":473920,"adult":false,"backdrop_path":"\/iaF5eBJoIbfD1QgwgQjctSDKdVK.jpg","original_language":"en","original_title":"S.M.A.R.T. Chase","genre_ids":[28,12,35],"title":"S.M.A.R.T. Chase","vote_average":5,"overview":"A washed-up private security agent has to escort a valuable Chinese antique out of Shanghai but is ambushed en route.","release_date":"2017-09-30"},{"popularity":9.303,"id":10544,"video":false,"vote_count":240,"vote_average":6.1,"title":"Ned Kelly","release_date":"2003-03-22","original_language":"en","original_title":"Ned Kelly","genre_ids":[28,12,18,36],"backdrop_path":"\/9axtm9zKb9gM3RSFnUONN6hfysh.jpg","adult":false,"overview":"After getting threatened by Kelly's friends and family, Constable Fitzpatrick places the blame on Ned Kelly and exaggerates what happened. With the biggest ever award available, Kelly and his gang set into the wild, to remain hidden from everyone who seeks them. Even if it means having his family arrested, the members of the Kelly Gang stay hidden and plan a way to get their names cleared.","poster_path":"\/xmGQsMbXKELzD4n78uMoCsgJPi4.jpg"}]}