{"page":1,"total_results":121,"total_pages":7,"results":[{"popularity":55.779,"id":400650,"video":false,"vote_count":2416,"vote_average":6.5,"title":"Mary Poppins Returns","release_date":"2018-12-13","original_language":"en","original_title":"Mary Poppins Returns","genre_ids":[14,10751,35],"backdrop_path":"\/3pvIMjJps4uJr5NOmolY0MXvTYD.jpg","adult":false,"overview":"In Depression-era London, a now-grown Jane and Michael Banks, along with Michael's three children, are visited by the enigmatic Mary Poppins following a personal loss. Through her unique magical skills, and with the aid of her friend Jack, she helps the family rediscover the joy and wonder missing in their lives.","poster_path":"\/uTVGku4LibMGyKgQvjBtv3OYfAX.jpg"},{"popularity":43.601,"vote_count":3074,"video":false,"poster_path":"\/yn5ihODtZ7ofn8pDYfxCmxh8AXI.jpg","id":331482,"adult":false,"backdrop_path":"\/lqxxwTRk0l7CubY6JkJdhnwJEkn.jpg","original_language":"en","original_title":"Little Women","genre_ids":[18,10749],"title":"Little Women","vote_average":8,"overview":"Four sisters come of age in America in the aftermath of the Civil War.","release_date":"2019-12-25"},{"popularity":34.648,"vote_count":41,"video":false,"poster_path":"\/tZWgclntziFRPQg0u0nI2FU4nYg.jpg","id":664850,"adult":false,"backdrop_path":"\/eiPFrqwkcPhTMy0bBuC3EuuaYL9.jpg","original_language":"en","original_title":"Here We Are: Notes for Living on Planet Earth","genre_ids":[16,10751],"title":"Here We Are: Notes for Living on Planet Earth","vote_average":7.9,"overview":"On the eve of Earth Day, a precocious seven-year-old learns about the wonders of the planet from his parents—and a mysterious exhibit at the aptly named Museum of Everything. Based on the best-selling children's book by Oliver Jeffers.","release_date":"2020-04-17"},{"popularity":38.655,"vote_count":8596,"video":false,"poster_path":"\/u6QBDGUCOEMRekna95ip2MxplbQ.jpg","id":350,"adult":false,"backdrop_path":"\/3tWw50B1xXlCnJ9A7NX4nNzZF4j.jpg","original_language":"en","original_title":"The Devil Wears Prada","genre_ids":[35,18,10749],"title":"The Devil Wears Prada","vote_average":7.3,"overview":"Andy moves to New York to work in the fashion industry. Her boss is extremely demanding, cruel and won't let her succeed if she doesn't fit into the high class elegant look of their magazine.","release_date":"2006-06-30"},{"popularity":27.579,"vote_count":4402,"video":false,"poster_path":"\/wnUAcUrMRGPPZUDroLeZhSjLkuu.jpg","id":644,"adult":false,"backdrop_path":"\/tzv6ZsYXoEuL5MH2lNvf5SW4bsI.jpg","original_language":"en","original_title":"A.I. Artificial Intelligence","genre_ids":[12,18,878],"title":"A.I. Artificial Intelligence","vote_average":7,"overview":"David, a robotic boy—the first of his kind programmed to love—is adopted as a test case by a Cybertronics employee and his wife. Though he gradually becomes their child, a series of unexpected circumstances make this life impossible for David. Without final acceptance by humans or machines, David embarks on a journey to discover where he truly belongs, uncovering a world in which the line between robot and machine is both vast and profoundly thin.","release_date":"2001-06-29"},{"popularity":17.915,"vote_count":2445,"video":false,"poster_path":"\/vzI4gNJDUwWgmNDSBWxYoeGkIEY.jpg","id":458423,"adult":false,"backdrop_path":"\/8HKwxHZ23sW8wz4yb28IWnAM1M6.jpg","original_language":"en","original_title":"Mamma Mia! Here We Go Again","genre_ids":[35,10749],"title":"Mamma Mia! Here We Go Again","vote_average":7.2,"overview":"Five years after meeting her three fathers, Sophie Sheridan prepares to open her mother’s hotel. In 1979, young Donna Sheridan meets the men who each could be Sophie’s biological father.","release_date":"2018-07-09"},{"popularity":19.059,"id":22897,"video":false,"vote_count":926,"vote_average":6.4,"title":"It's Complicated","release_date":"2009-12-23","original_language":"en","original_title":"It's Complicated","genre_ids":[35,10749],"backdrop_path":"\/8hQuAJgGV5OuFKttZoFilUYyJB7.jpg","adult":false,"overview":"Ten years after their divorce, Jane and Jake Adler unite for their son's college graduation and unexpectedly end up sleeping together. But Jake is married, and Jane is embarking on a new romance with her architect. Now, she has to sort out her life—just when she thought she had it all figured out.","poster_path":"\/Act1ypvpDNVzWbceIktX6KmmNhh.jpg"},{"popularity":21.934,"vote_count":3227,"video":false,"poster_path":"\/njbTizADSZg4PqeyJdDzZGooikv.jpg","id":10315,"adult":false,"backdrop_path":"\/zuhBQ0SEFuKzZufaZ7IatYodPtE.jpg","original_language":"en","original_title":"Fantastic Mr. Fox","genre_ids":[12,16,35,10751],"title":"Fantastic Mr. Fox","vote_average":7.7,"overview":"The Fantastic Mr. Fox bored with his current life, plans a heist against the three local farmers. The farmers, tired of sharing their chickens with the sly fox, seek revenge against him and his family.","release_date":"2009-10-23"},{"popularity":18.176,"vote_count":940,"video":false,"poster_path":"\/oFuqX0inTvbA1XAFv2x3CQnI65m.jpg","id":9906,"adult":false,"backdrop_path":"\/bBKKHxCEmTP147weS8l2K8gQZha.jpg","original_language":"en","original_title":"The Ant Bully","genre_ids":[12,16,35,14,10751],"title":"The Ant Bully","vote_average":5.7,"overview":"Fed up with being targeted by the neighborhood bully, 10-year-old Lucas Nickle vents his frustrations on the anthill in his front yard ... until the insects shrink him to the size of a bug with a magic elixir. Convicted of \"crimes against the colony,\" Lucas can only regain his freedom by living with the ants and learning their ways.","release_date":"2006-07-28"},{"popularity":13.109,"vote_count":1227,"video":false,"poster_path":"\/8TfLAfIh5Qxp2J4ZjOafHYhWtDb.jpg","id":688,"adult":false,"backdrop_path":"\/4TnGcUsyd6ixuLWHaaEG5BGkAIp.jpg","original_language":"en","original_title":"The Bridges of Madison County","genre_ids":[18,10749],"title":"The Bridges of Madison County","vote_average":7.6,"overview":"Photographer Robert Kincaid wanders into the life of housewife Francesca Johnson for four days in the 1960s.","release_date":"1995-05-28"},{"popularity":15.101,"id":11774,"video":false,"vote_count":3777,"vote_average":6.8,"title":"Lemony Snicket's A Series of Unfortunate Events","release_date":"2004-12-16","original_language":"en","original_title":"Lemony Snicket's A Series of Unfortunate Events","genre_ids":[12,35,10751],"backdrop_path":"\/rOUj4BXAoFqhg3kWhQOAaTa5IBh.jpg","adult":false,"overview":"Three wealthy children's parents are killed in a fire. When they are sent to a distant relative, they find out that he is plotting to kill them and seize their fortune.  This movie is extremely alarming, an expression which here means \"a thrilling misadventure involving three ingenious orphans and a villainous actor named Count Olaf (Jim Carrey) who wants their enormous fortune.\"  It includes a suspicious fire, delicious pasta, Jim Carrey, poorly behaved looches, Billy Connolly, an incredibly deadly viper, Meryl Streep, and the voice of an imposter named Jude Law.","poster_path":"\/syuIptWCGH1AlJ8AB7ZGwckHSi1.jpg"},{"popularity":13.172,"vote_count":1475,"video":false,"poster_path":"\/r1bFBBj3VMek0oEtgm9N51OqVjF.jpg","id":24803,"adult":false,"backdrop_path":"\/yClFYIzSdenBQYD3BOk7U5BRL43.jpg","original_language":"en","original_title":"Julie & Julia","genre_ids":[18,10749],"title":"Julie & Julia","vote_average":6.7,"overview":"Julia Child and Julie Powell – both of whom wrote memoirs – find their lives intertwined. Though separated by time and space, both women are at loose ends... until they discover that with the right combination of passion, fearlessness and butter, anything is possible.","release_date":"2009-08-06"},{"popularity":20.414,"id":11631,"video":false,"vote_count":4746,"vote_average":6.9,"title":"Mamma Mia!","release_date":"2008-07-02","original_language":"en","original_title":"Mamma Mia!","genre_ids":[35,10749],"backdrop_path":"\/ns9T8glyF7mYwxrcUHXm22nMf9t.jpg","adult":false,"overview":"An independent, single mother who owns a small hotel on a Greek island is about to marry off the spirited young daughter she's raised alone. But, the daughter has secretly invited three of her mother's ex-lovers in the hopes of finding her biological father.","poster_path":"\/zdUA4FNHbXPadzVOJiU0Rgn6cHR.jpg"},{"popularity":18.326,"vote_count":1619,"video":false,"poster_path":"\/hXKmJZ7SUPlwgLbaKuk2FT9M5Gz.jpg","id":9374,"adult":false,"backdrop_path":"\/8vdJJjtbaPnfAgqyvLtFwlCSNdi.jpg","original_language":"en","original_title":"Death Becomes Her","genre_ids":[35,14,27],"title":"Death Becomes Her","vote_average":6.7,"overview":"Madeline is married to Ernest, who was once arch-rival Helen's fiance. After recovering from a mental breakdown, Helen vows to kill Madeline and steal back Ernest. Unfortunately for everyone, the introduction of a magic potion causes things to be a great deal more complicated than a mere murder plot.","release_date":"1992-07-30"},{"popularity":20.28,"vote_count":2358,"video":false,"poster_path":"\/wT3DeCZ3Ax5VYhKu6ajyEvA1hXG.jpg","id":11778,"adult":false,"backdrop_path":"\/jtRqGkW6ywSyKlnx7k399OW69Ur.jpg","original_language":"en","original_title":"The Deer Hunter","genre_ids":[18,10752],"title":"The Deer Hunter","vote_average":8,"overview":"A group of working-class friends decide to enlist in the Army during the Vietnam War and finds it to be hellish chaos -- not the noble venture they imagined. Before they left, Steven married his pregnant girlfriend -- and Michael and Nick were in love with the same woman. But all three are different men upon their return.","release_date":"1978-03-09"},{"popularity":20.998,"id":224141,"video":false,"vote_count":3478,"vote_average":5.8,"title":"Into the Woods","release_date":"2014-12-24","original_language":"en","original_title":"Into the Woods","genre_ids":[14,35],"backdrop_path":"\/qF938YRj7RoYkjwOsXFDNYf907J.jpg","adult":false,"overview":"In a woods filled with magic and fairy tale characters, a baker and his wife set out to end the curse put on them by their neighbor, a spiteful witch.","poster_path":"\/pf0TdnITu380Zp8DMQx0jcwDsAS.jpg"},{"popularity":18.124,"id":446354,"video":false,"vote_count":3372,"vote_average":7,"title":"The Post","release_date":"2017-01-19","original_language":"en","original_title":"The Post","genre_ids":[18,36],"backdrop_path":"\/8sb4aBST28vN3rBz704XJczS0Ld.jpg","adult":false,"overview":"A cover-up that spanned four U.S. Presidents pushed the country's first female newspaper publisher and a hard-driving editor to join an unprecedented battle between journalist and government. Inspired by true events.","poster_path":"\/h4XG3g6uMMPIBPjAoQhC2QIMdkl.jpg"},{"popularity":17.368,"vote_count":0,"video":false,"poster_path":"\/9oHvqd1QL5kaqt6zmCuDmM8esjV.jpg","id":611213,"adult":false,"backdrop_path":"\/u517zo6teGyiKoa4dRIP5rMbFaH.jpg","original_language":"en","original_title":"The Prom","genre_ids":[35,10402],"title":"The Prom","vote_average":0,"overview":"A troupe of hilariously self-obsessed theater stars swarm into a small conservative Indiana town in support of a high school girl who wants to take her girlfriend to the prom.","release_date":"2020-12-02"},{"popularity":17.218,"vote_count":1600,"video":false,"poster_path":"\/k4eT3EvfxW1L9Wmt04UqJqCvCR6.jpg","id":696,"adult":false,"backdrop_path":"\/q9o9KTuVI1qqbVZqorGMogKEUoG.jpg","original_language":"en","original_title":"Manhattan","genre_ids":[35,18,10749],"title":"Manhattan","vote_average":7.9,"overview":"Manhattan explores how the life of a middle-aged television writer dating a teenage girl is further complicated when he falls in love with his best friend's mistress.","release_date":"1979-04-25"},{"popularity":13.688,"id":517909,"video":false,"vote_count":748,"vote_average":6,"title":"The Laundromat","release_date":"2019-09-27","original_language":"en","original_title":"The Laundromat","genre_ids":[18,80,35],"backdrop_path":"\/ld3bBHoKINhXHjABn5yEJVSBOpF.jpg","adult":false,"overview":"When her idyllic vacation takes an unthinkable turn, Ellen Martin begins investigating a fake insurance policy, only to find herself down a rabbit hole of questionable dealings that can be linked to a Panama City law firm and its vested interest in helping the world's wealthiest citizens amass larger fortunes.","poster_path":"\/hwNMJgbiUUvPCxsnADjbV9ysM5j.jpg"}]}