{"page":1,"total_results":99,"total_pages":5,"results":[{"popularity":92.561,"vote_count":9567,"video":false,"poster_path":"\/5Kg76ldv7VxeX9YlcQXiowHgdX6.jpg","id":297802,"adult":false,"backdrop_path":"\/9QusGjxcYvfPD1THg6oW3RLeNn7.jpg","original_language":"en","original_title":"Aquaman","genre_ids":[28,12,14],"title":"Aquaman","vote_average":6.9,"overview":"Once home to the most advanced civilization on Earth, Atlantis is now an underwater kingdom ruled by the power-hungry King Orm. With a vast army at his disposal, Orm plans to conquer the remaining oceanic people and then the surface world. Standing in his way is Arthur Curry, Orm's half-human, half-Atlantean brother and true heir to the throne.","release_date":"2018-12-07"},{"popularity":26.842,"id":440472,"video":false,"vote_count":688,"vote_average":7.1,"title":"The Upside","release_date":"2019-01-10","original_language":"en","original_title":"The Upside","genre_ids":[35,18],"backdrop_path":"\/mdGUvN7yCyExPNO5f4zAzifk1l1.jpg","adult":false,"overview":"Phillip is a wealthy quadriplegic who needs a caretaker to help him with his day-to-day routine in his New York penthouse. He decides to hire Dell, a struggling parolee who's trying to reconnect with his ex and his young son. Despite coming from two different worlds, an unlikely friendship starts to blossom.","poster_path":"\/hPZ2caow1PCND6qnerfgn6RTXdm.jpg"},{"popularity":32.277,"vote_count":3919,"video":false,"poster_path":"\/ez1EDULOCUUCySHOZU6tz97qbtM.jpg","id":50546,"adult":false,"backdrop_path":"\/oFGjiPBB3JRQwmzgNxCmCE1naX6.jpg","original_language":"en","original_title":"Just Go with It","genre_ids":[35,10749],"title":"Just Go with It","vote_average":6.6,"overview":"A plastic surgeon, romancing a much younger schoolteacher, enlists his loyal assistant to pretend to be his soon to be ex-wife, in order to cover up a careless lie. When more lies backfire, the assistant's kids become involved, and everyone heads off for a weekend in Hawaii that will change all their lives.","release_date":"2011-02-10"},{"popularity":32.834,"id":525661,"video":false,"vote_count":1615,"vote_average":6.9,"title":"Bombshell","release_date":"2019-12-13","original_language":"en","original_title":"Bombshell","genre_ids":[18],"backdrop_path":"\/nj84vpuUWdbmYktBzjiWn5Ny1ZF.jpg","adult":false,"overview":"Bombshell is a revealing look inside the most powerful and controversial media empire of all time; and the explosive story of the women who brought down the infamous man who created it.","poster_path":"\/gbPfvwBqbiHpQkYZQvVwB6MVauV.jpg"},{"popularity":30.664,"vote_count":1402,"video":false,"poster_path":"\/1sSWpTupVixOanIpZdLGzsKvcZS.jpg","id":204922,"adult":false,"backdrop_path":"\/Qf366kUqyfGkB7Q3vqlB8I0VIR.jpg","original_language":"en","original_title":"Before I Go to Sleep","genre_ids":[9648,53],"title":"Before I Go to Sleep","vote_average":6.5,"overview":"A woman wakes up every day, remembering nothing as a result of a traumatic accident in her past. One day, new terrifying truths emerge that force her to question everyone around her.","release_date":"2014-09-03"},{"popularity":23.094,"id":345,"video":false,"vote_count":3763,"vote_average":7.4,"title":"Eyes Wide Shut","release_date":"1999-07-16","original_language":"en","original_title":"Eyes Wide Shut","genre_ids":[18,53,9648],"backdrop_path":"\/eAuS9UpWi44tyI7PdOLrcgLpZuV.jpg","adult":false,"overview":"After Dr. Bill Harford's wife, Alice, admits to having sexual fantasies about a man she met, Bill becomes obsessed with having a sexual encounter. He discovers an underground sexual group and attends one of their meetings -- and quickly discovers that he is in over his head.","poster_path":"\/a0YOhU3zq0RkOYrVlPXCeE1oFkR.jpg"},{"popularity":27.505,"vote_count":2407,"video":false,"poster_path":"\/hy70yIiMQEHMzRaVlMkOPlao2Ws.jpg","id":116149,"adult":false,"backdrop_path":"\/hInUe0cPpbG33VfwAtZ3Gq9hhd0.jpg","original_language":"en","original_title":"Paddington","genre_ids":[35,12,10751],"title":"Paddington","vote_average":7.1,"overview":"A young Peruvian bear travels to London in search of a new home. Finding himself lost and alone at Paddington Station, he meets the kindly Brown family.","release_date":"2014-11-24"},{"popularity":17.964,"id":4858,"video":false,"vote_count":932,"vote_average":5.9,"title":"The Invasion","release_date":"2007-08-17","original_language":"en","original_title":"The Invasion","genre_ids":[878,53],"backdrop_path":"\/i2qe6LRYUbYIITw5vSH6UlBMrRS.jpg","adult":false,"overview":"Washington, D.C. psychologist Carol Bennell and her colleague Dr. Ben Driscoll are the only two people on Earth who are aware of an epidemic running rampant through the city. They discover an alien virus aboard a crashed space shuttle that transforms anyone who comes into contact with it into unfeeling drones while they sleep. Carol realizes her son holds the key to stopping the spread of the plague and she races to find him before it is too late.","poster_path":"\/69yA6E7JOKJSfK8JMAOsieCDB8A.jpg"},{"popularity":26.124,"vote_count":6,"video":false,"poster_path":"\/pa7m8nqDrEi7hAGB5vTnCkGLPC2.jpg","id":645488,"adult":false,"backdrop_path":null,"original_language":"en","original_title":"Aquaman: Heroines of Atlantis","genre_ids":[99],"title":"Aquaman: Heroines of Atlantis","vote_average":7.2,"overview":"Amber Heard and Nicole Kidman discuss their characters Mera and Atlanna.","release_date":"2019-03-26"},{"popularity":23.073,"vote_count":3565,"video":false,"poster_path":"\/k6EQ2OewzjF8TcPgok9wxpPAgXW.jpg","id":414,"adult":false,"backdrop_path":"\/snlu32RmjldF9b068UURJg8sQtn.jpg","original_language":"en","original_title":"Batman Forever","genre_ids":[28,80,14],"title":"Batman Forever","vote_average":5.4,"overview":"The Dark Knight of Gotham City confronts a dastardly duo: Two-Face and the Riddler. Formerly District Attorney Harvey Dent, Two-Face believes Batman caused the courtroom accident which left him disfigured on one side. And Edward Nygma, computer-genius and former employee of millionaire Bruce Wayne, is out to get the philanthropist; as The Riddler. Former circus acrobat Dick Grayson, his family killed by Two-Face, becomes Wayne's ward and Batman's new partner Robin.","release_date":"1995-06-16"},{"popularity":19.799,"id":472674,"video":false,"vote_count":407,"vote_average":7,"title":"The Goldfinch","release_date":"2019-09-12","original_language":"en","original_title":"The Goldfinch","genre_ids":[18],"backdrop_path":"\/2l1EnvqowTFAwcByKeXDwdhiJI0.jpg","adult":false,"overview":"A boy in New York is taken in by a wealthy family after his mother is killed in a bombing at the Metropolitan Museum of Art. In a rush of panic, he steals 'The Goldfinch', a painting that eventually draws him into a world of crime.","poster_path":"\/8NwONmcJmPr0w9A176JorJ3tbJx.jpg"},{"popularity":15.347,"vote_count":4267,"video":false,"poster_path":"\/AdTFzlJmQ3rTtTpoyS9rqU17qN7.jpg","id":1933,"adult":false,"backdrop_path":"\/i6epjfJemvscldYv5OPTWLV76TY.jpg","original_language":"en","original_title":"The Others","genre_ids":[27,18,9648,53],"title":"The Others","vote_average":7.6,"overview":"Grace is a religious woman who lives in an old house kept dark because her two children, Anne and Nicholas, have a rare sensitivity to light. When the family begins to suspect the house is haunted, Grace fights to protect her children at any cost in the face of strange events and disturbing visions.","release_date":"2001-08-02"},{"popularity":16.83,"id":2268,"video":false,"vote_count":3368,"vote_average":6,"title":"The Golden Compass","release_date":"2007-12-04","original_language":"en","original_title":"The Golden Compass","genre_ids":[12,14],"backdrop_path":"\/szAuHzSVFzamjCkkulopJZQVNYd.jpg","adult":false,"overview":"After overhearing a shocking secret, precocious orphan Lyra Belacqua trades her carefree existence roaming the halls of Jordan College for an otherworldly adventure in the far North, unaware that it's part of her destiny.","poster_path":"\/lyaS7S4emzEaYUcSnCvyqfJpOcA.jpg"},{"popularity":17.594,"id":472451,"video":false,"vote_count":911,"vote_average":7.1,"title":"Boy Erased","release_date":"2018-09-24","original_language":"en","original_title":"Boy Erased","genre_ids":[18],"backdrop_path":"\/2ePViXIOnifrugvnjlFxzmvjwKL.jpg","adult":false,"overview":"Jared, the son of a Baptist pastor in a small American town, is outed to his parents at age 19. Jared is faced with an ultimatum: attend a gay conversion therapy program – or be permanently exiled and shunned by his family, friends, and faith.","poster_path":"\/oZbhTdi0ZQY7iiSQ0L7h3ya6NDF.jpg"},{"popularity":25.574,"vote_count":3259,"video":false,"poster_path":"\/7BabiNfuSycl58M9Cgl3Nf97n1F.jpg","id":4547,"adult":false,"backdrop_path":"\/gXkMRCw4dKE3yRnZpmgP8wfLL1y.jpg","original_language":"en","original_title":"Panic Room","genre_ids":[80,18,53],"title":"Panic Room","vote_average":6.7,"overview":"Trapped in their New York brownstone's panic room, a hidden chamber built as a sanctuary in the event of break-ins, newly divorced Meg Altman and her young daughter Sarah play a deadly game of cat-and-mouse with three intruders - Burnham, Raoul and Junior - during a brutal home invasion. But the room itself is the focal point because what the intruders really want is inside it.","release_date":"2002-03-29"},{"popularity":21.653,"id":9836,"video":false,"vote_count":3604,"vote_average":6.1,"title":"Happy Feet","release_date":"2006-11-16","original_language":"en","original_title":"Happy Feet","genre_ids":[16,35,10751],"backdrop_path":"\/9DUAR7p4SGqt2ISH2lmSzNx3uni.jpg","adult":false,"overview":"Into the world of the Emperor Penguins, who find their soul mates through song, a penguin is born who cannot sing. But he can tap dance something fierce!","poster_path":"\/za41IHkj6LnkilfTzv5B2qmthKD.jpg"},{"popularity":13.552,"id":399019,"video":false,"vote_count":1603,"vote_average":5.8,"title":"The Beguiled","release_date":"2017-06-23","original_language":"en","original_title":"The Beguiled","genre_ids":[18],"backdrop_path":"\/5jq7TjRzmvkJsa8bF3zWqxbPtmw.jpg","adult":false,"overview":"During the Civil War, at a Southern girls’ boarding school, young women take in an injured enemy soldier. As they provide refuge and tend to his wounds, the house is taken over with sexual tension and dangerous rivalries, and taboos are broken in an unexpected turn of events.","poster_path":"\/uQxfqFAqAvNK5b1wD11b2ycDAVg.jpg"},{"popularity":19.933,"id":334543,"video":false,"vote_count":5052,"vote_average":8.1,"title":"Lion","release_date":"2016-01-20","original_language":"en","original_title":"Lion","genre_ids":[18],"backdrop_path":"\/fgffluhvdOv79SkYaKrfRA0xkf4.jpg","adult":false,"overview":"A five-year-old Indian boy gets lost on the streets of Calcutta, thousands of kilometers from home. He survives many challenges before being adopted by a couple in Australia; 25 years later, he sets out to find his lost family.","poster_path":"\/iBGRbLvg6kVc7wbS8wDdVHq6otm.jpg"},{"popularity":11.063,"vote_count":1645,"video":false,"poster_path":"\/45X7LFsgYvdEgFCkXSZCQOZMuJX.jpg","id":6972,"adult":false,"backdrop_path":"\/baLn65OQYiXMjLy2o5yxwpa6Fga.jpg","original_language":"en","original_title":"Australia","genre_ids":[12,18,10749],"title":"Australia","vote_average":6.6,"overview":"Set in northern Australia before World War II, an English aristocrat who inherits a sprawling ranch reluctantly pacts with a stock-man in order to protect her new property from a takeover plot. As the pair drive 2,000 head of cattle over unforgiving landscape, they experience the bombing of Darwin by Japanese forces firsthand.","release_date":"2008-11-18"},{"popularity":19.592,"vote_count":844,"video":false,"poster_path":"\/2xfP227oLToQjBCUg3FI18pWh3G.jpg","id":2119,"adult":false,"backdrop_path":"\/jhJsH8RrIWvKE4Wo3tVYb4x4a4m.jpg","original_language":"en","original_title":"Days of Thunder","genre_ids":[12,28,10749,18],"title":"Days of Thunder","vote_average":6.2,"overview":"Talented but unproven stock car driver Cole Trickle gets a break and with the guidance of veteran Harry Hogge turns heads on the track. The young hotshot develops a rivalry with a fellow racer that threatens his career when the two smash their cars. But with the help of his doctor, Cole just might overcome his injuries-- and his fear.","release_date":"1990-06-27"}]}